<svg xmlns="http://www.w3.org/2000/svg" xmlns:xlink="http://www.w3.org/1999/xlink" width="99.184" height="99.184" viewBox="0 0 99.184 99.184">
  <defs>
    <filter id="路径_23" x="0" y="0" width="99.184" height="99.184" filterUnits="userSpaceOnUse">
      <feOffset dy="3" input="SourceAlpha"/>
      <feGaussianBlur stdDeviation="3" result="blur"/>
      <feFlood flood-opacity="0.161"/>
      <feComposite operator="in" in2="blur"/>
      <feComposite in="SourceGraphic"/>
    </filter>
  </defs>
  <g id="组_380" data-name="组 380" transform="translate(286.372 455.561) rotate(180)">
    <g transform="matrix(-1, 0, 0, -1, 286.37, 455.56)" filter="url(#路径_23)">
      <g id="路径_23-2" data-name="路径 23" transform="translate(9 40.89) rotate(-37)" fill="#007dcb">
        <path d="M 28.98508071899414 56.97017288208008 C 25.20668029785156 56.97017288208008 21.54183006286621 56.23039627075195 18.09233093261719 54.7713737487793 C 14.76001071929932 53.36192321777344 11.76707077026367 51.34395599365234 9.196640968322754 48.77353286743164 C 6.626220703125 46.20310592651367 4.608250617980957 43.21016311645508 3.198800802230835 39.87783432006836 C 1.73978066444397 36.4283332824707 1.000000715255737 32.76348495483398 1.000000715255737 28.98508453369141 C 1.000000715255737 25.20668411254883 1.73978066444397 21.54183387756348 3.198800802230835 18.09233474731445 C 4.608250617980957 14.76001453399658 6.626220703125 11.76706409454346 9.196640968322754 9.19664478302002 C 11.76707077026367 6.626224517822266 14.76001071929932 4.608254432678223 18.09233093261719 3.198804616928101 C 21.54183006286621 1.739784479141235 25.20668029785156 1.000004529953003 28.98508071899414 1.000004529953003 C 32.76348114013672 1.000004529953003 36.42832946777344 1.739784479141235 39.87783050537109 3.198804616928101 C 43.21015167236328 4.608254432678223 46.20310211181641 6.626224517822266 48.77352142333984 9.19664478302002 C 51.34394073486328 11.76706409454346 53.36191177368164 14.76001453399658 54.7713623046875 18.09233474731445 C 56.23038101196289 21.54183387756348 56.97016143798828 25.20668411254883 56.97016143798828 28.98508453369141 C 56.97016143798828 32.76348495483398 56.23038101196289 36.4283332824707 54.7713623046875 39.87783432006836 C 53.36191177368164 43.21016311645508 51.34394073486328 46.20310592651367 48.77352142333984 48.77353286743164 C 46.20310211181641 51.34395599365234 43.21015167236328 53.36192321777344 39.87783050537109 54.7713737487793 C 36.42832946777344 56.23039627075195 32.76348114013672 56.97017288208008 28.98508071899414 56.97017288208008 Z" stroke="none"/>
        <path d="M 28.98508071899414 1.999996185302734 C 25.34123992919922 1.999996185302734 21.80744934082031 2.71319580078125 18.48188018798828 4.119792938232422 C 15.26876068115234 5.478836059570312 12.38265228271484 7.424835205078125 9.903751373291016 9.903743743896484 C 7.424839019775391 12.38265609741211 5.478839874267578 15.26875305175781 4.119800567626953 18.48188400268555 C 2.713199615478516 21.80745315551758 2 25.34124374389648 2 28.98508453369141 C 2 32.62892532348633 2.713199615478516 36.16271209716797 4.119800567626953 39.48827362060547 C 5.478839874267578 42.7014045715332 7.424839019775391 45.58750534057617 9.903751373291016 48.06641387939453 C 12.38265228271484 50.54532623291016 15.26876068115234 52.49132537841797 18.48188018798828 53.85036468505859 C 21.80744934082031 55.25696563720703 25.34123992919922 55.97016525268555 28.98508071899414 55.97016525268555 C 32.62892150878906 55.97016525268555 36.16271209716797 55.25696563720703 39.48828125 53.85036468505859 C 42.70140075683594 52.49132537841797 45.58750915527344 50.54532623291016 48.06641006469727 48.06641387939453 C 50.54531860351562 45.58750534057617 52.4913215637207 42.7014045715332 53.85036087036133 39.48827362060547 C 55.25696182250977 36.16271209716797 55.97016143798828 32.62892532348633 55.97016143798828 28.98508453369141 C 55.97016143798828 25.34124374389648 55.25696182250977 21.80745315551758 53.85036087036133 18.48188400268555 C 52.4913215637207 15.26875305175781 50.54531860351562 12.38265609741211 48.06641006469727 9.903743743896484 C 45.58750915527344 7.424835205078125 42.70140075683594 5.478836059570312 39.48828125 4.119792938232422 C 36.16271209716797 2.71319580078125 32.62892150878906 1.999996185302734 28.98508071899414 1.999996185302734 M 28.98508071899414 -3.814697265625e-06 C 44.99310302734375 -3.814697265625e-06 57.97016143798828 12.97706604003906 57.97016143798828 28.98508453369141 C 57.97016143798828 44.99309539794922 44.99310302734375 57.97016525268555 28.98508071899414 57.97016525268555 C 12.9770622253418 57.97016525268555 0 44.99309539794922 0 28.98508453369141 C 0 12.97706604003906 12.9770622253418 -3.814697265625e-06 28.98508071899414 -3.814697265625e-06 Z" stroke="none" fill="#fff"/>
      </g>
    </g>
    <line id="直线_70" data-name="直线 70" x2="15.05" y2="15.05" transform="translate(221.73 401.444)" fill="none" stroke="#fff" stroke-linecap="round" stroke-width="5"/>
    <line id="直线_71" data-name="直线 71" x1="15.05" y2="15.05" transform="translate(236.78 401.444)" fill="none" stroke="#fff" stroke-linecap="round" stroke-width="5"/>
  </g>
</svg>
